…
## Question 1

Rename each variable so that it is all lower-case and uses an underscore
\_ instead of a period . in the name (the recommended coding style in
the tidyverse style guide). Print the resulting table.

``` r
rename(iris, 
sepal_length = Sepal.Length,
sepal_width= Sepal.Width,
petal_width=Petal.Width,
petal_length = Petal.Length)
```

    ## # A tibble: 150 x 5
    ##    sepal_length sepal_width petal_length petal_width Species
    ##           <dbl>       <dbl>        <dbl>       <dbl> <fct>  
    ##  1          5.1         3.5          1.4         0.2 setosa 
    ##  2          4.9         3            1.4         0.2 setosa 
    ##  3          4.7         3.2          1.3         0.2 setosa 
    ##  4          4.6         3.1          1.5         0.2 setosa 
    ##  5          5           3.6          1.4         0.2 setosa 
    ##  6          5.4         3.9          1.7         0.4 setosa 
    ##  7          4.6         3.4          1.4         0.3 setosa 
    ##  8          5           3.4          1.5         0.2 setosa 
    ##  9          4.4         2.9          1.4         0.2 setosa 
    ## 10          4.9         3.1          1.5         0.1 setosa 
    ## # ... with 140 more rows

``` r
iris2 <- rename(iris, 
             sepal_length = Sepal.Length,
             sepal_width= Sepal.Width,
             petal_width=Petal.Width,
             petal_length = Petal.Length)
iris2
```

    ## # A tibble: 150 x 5
    ##    sepal_length sepal_width petal_length petal_width Species
    ##           <dbl>       <dbl>        <dbl>       <dbl> <fct>  
    ##  1          5.1         3.5          1.4         0.2 setosa 
    ##  2          4.9         3            1.4         0.2 setosa 
    ##  3          4.7         3.2          1.3         0.2 setosa 
    ##  4          4.6         3.1          1.5         0.2 setosa 
    ##  5          5           3.6          1.4         0.2 setosa 
    ##  6          5.4         3.9          1.7         0.4 setosa 
    ##  7          4.6         3.4          1.4         0.3 setosa 
    ##  8          5           3.4          1.5         0.2 setosa 
    ##  9          4.4         2.9          1.4         0.2 setosa 
    ## 10          4.9         3.1          1.5         0.1 setosa 
    ## # ... with 140 more rows

## Question 2

Convert the four numerical variables from cm to mm by multiplying by 10.
Print the resulting table.

``` r
mutate(iris2,
       sepal_length=sepal_length*10,
       sepal_width=sepal_width*10,
       petal_width=petal_width*10,
       petal_length=petal_length*10)
```

    ## # A tibble: 150 x 5
    ##    sepal_length sepal_width petal_length petal_width Species
    ##           <dbl>       <dbl>        <dbl>       <dbl> <fct>  
    ##  1           51          35           14           2 setosa 
    ##  2           49          30           14           2 setosa 
    ##  3           47          32           13           2 setosa 
    ##  4           46          31           15           2 setosa 
    ##  5           50          36           14           2 setosa 
    ##  6           54          39           17           4 setosa 
    ##  7           46          34           14           3 setosa 
    ##  8           50          34           15           2 setosa 
    ##  9           44          29           14           2 setosa 
    ## 10           49          31           15           1 setosa 
    ## # ... with 140 more rows

## Question 3

Calculate sepal area and petal area (area is equal to length multiplied
by width). Print a table with only the variables sepal area, petal area,
and species.

``` r
mutate(iris2,
       sepal_area = sepal_length * sepal_width, 
       petal_area = petal_length * petal_width)
```

    ## # A tibble: 150 x 7
    ##    sepal_length sepal_width petal_length petal_width Species sepal_area
    ##           <dbl>       <dbl>        <dbl>       <dbl> <fct>        <dbl>
    ##  1          5.1         3.5          1.4         0.2 setosa        17.8
    ##  2          4.9         3            1.4         0.2 setosa        14.7
    ##  3          4.7         3.2          1.3         0.2 setosa        15.0
    ##  4          4.6         3.1          1.5         0.2 setosa        14.3
    ##  5          5           3.6          1.4         0.2 setosa        18  
    ##  6          5.4         3.9          1.7         0.4 setosa        21.1
    ##  7          4.6         3.4          1.4         0.3 setosa        15.6
    ##  8          5           3.4          1.5         0.2 setosa        17  
    ##  9          4.4         2.9          1.4         0.2 setosa        12.8
    ## 10          4.9         3.1          1.5         0.1 setosa        15.2
    ## # ... with 140 more rows, and 1 more variable: petal_area <dbl>
…
## Question 5

Calculate the following statistics for each species from the petal width
variable and print the resulting table:

sample size mean standard deviation variance standard error of the mean
approximate 95% confidence interval

``` r
petal_grouped<- group_by(iris2,Species)
petal_grouped
```

    ## # A tibble: 150 x 5
    ## # Groups:   Species [3]
    ##    sepal_length sepal_width petal_length petal_width Species
    ##           <dbl>       <dbl>        <dbl>       <dbl> <fct>  
    ##  1          5.1         3.5          1.4         0.2 setosa 
    ##  2          4.9         3            1.4         0.2 setosa 
    ##  3          4.7         3.2          1.3         0.2 setosa 
    ##  4          4.6         3.1          1.5         0.2 setosa 
    ##  5          5           3.6          1.4         0.2 setosa 
    ##  6          5.4         3.9          1.7         0.4 setosa 
    ##  7          4.6         3.4          1.4         0.3 setosa 
    ##  8          5           3.4          1.5         0.2 setosa 
    ##  9          4.4         2.9          1.4         0.2 setosa 
    ## 10          4.9         3.1          1.5         0.1 setosa 
    ## # ... with 140 more rows
…
